[gd_scene load_steps=5 format=2]

[ext_resource path="res://Levels/WorldPhysics.gd" type="Script" id=1]
[ext_resource path="res://States/PlayerStates/player_state_test.tscn" type="PackedScene" id=2]
[ext_resource path="res://Levels/TilesetProvisorio.tres" type="TileSet" id=3]
[ext_resource path="res://Creatures/JumpingEnemy.tscn" type="PackedScene" id=4]

[node name="Tutorial" type="Node2D" groups=[
"level",
]]
script = ExtResource( 1 )

[node name="Player" parent="." instance=ExtResource( 2 )]
position = Vector2( -1118.17, 572.598 )

[node name="TileMap" type="TileMap" parent="."]
tile_set = ExtResource( 3 )
cell_size = Vector2( 32, 32 )
collision_mask = 14
format = 1
tile_data = PoolIntArray( 1245136, 0, 0, 1245137, 0, 0, 1310672, 0, 0, 1310673, 0, 0, 1245281, 0, 0, 1245282, 0, 0, 1245283, 0, 0, 1245284, 0, 0, 1376208, 0, 0, 1376209, 0, 0, 1310820, 0, 0, 1441744, 0, 0, 1441745, 0, 0, 1376350, 0, 0, 1376351, 0, 0, 1376356, 0, 0, 1507280, 0, 0, 1507281, 0, 0, 1441886, 1, 0, 1441887, 1, 0, 1441892, 0, 0, 1572816, 0, 0, 1572817, 0, 0, 1507428, 0, 0, 1638352, 0, 0, 1638353, 0, 0, 1572964, 0, 0, 1703888, 0, 0, 1703889, 0, 0, 1638491, 0, 0, 1638492, 0, 0, 1638493, 0, 0, 1638500, 0, 0, 1769424, 0, 0, 1769425, 0, 0, 1704036, 0, 0, 1834960, 0, 0, 1834961, 0, 0, 1769572, 0, 0, 1900496, 0, 0, 1900497, 0, 0, 1835108, 0, 0, 1966032, 0, 0, 1966033, 0, 0, 1966077, 0, 0, 1966078, 0, 0, 1966079, 0, 0, 1900544, 0, 0, 1900630, 0, 0, 1900631, 0, 0, 1900632, 0, 0, 1900633, 0, 0, 1900644, 0, 0, 2031568, 0, 0, 2031569, 0, 0, 1966180, 0, 0, 2097104, 0, 0, 2097105, 0, 0, 2031716, 0, 0, 2162640, 0, 0, 2162641, 0, 0, 2097252, 0, 0, 2228176, 0, 0, 2228177, 0, 0, 2162788, 0, 0, 2293712, 0, 0, 2293713, 0, 0, 2293714, 0, 0, 2293715, 0, 0, 2293716, 0, 0, 2293717, 0, 0, 2293718, 0, 0, 2293719, 0, 0, 2293720, 0, 0, 2293721, 0, 0, 2293722, 0, 0, 2293723, 0, 0, 2293724, 0, 0, 2293725, 0, 0, 2293726, 0, 0, 2293727, 0, 0, 2293728, 0, 0, 2293729, 0, 0, 2293730, 0, 0, 2293731, 0, 0, 2293732, 0, 0, 2293733, 0, 0, 2293734, 0, 0, 2293735, 0, 0, 2293736, 0, 0, 2293737, 0, 0, 2293738, 0, 0, 2293739, 0, 0, 2293740, 0, 0, 2293741, 0, 0, 2293742, 0, 0, 2293743, 0, 0, 2293744, 0, 0, 2293745, 0, 0, 2293750, 0, 0, 2293751, 0, 0, 2293752, 0, 0, 2293753, 0, 0, 2293754, 0, 0, 2293755, 0, 0, 2293756, 0, 0, 2293757, 0, 0, 2293758, 0, 0, 2293759, 0, 0, 2228224, 0, 0, 2228225, 0, 0, 2228226, 0, 0, 2228227, 0, 0, 2228228, 0, 0, 2228229, 0, 0, 2228230, 0, 0, 2228231, 0, 0, 2228232, 0, 0, 2228233, 0, 0, 2228234, 0, 0, 2228235, 0, 0, 2228236, 0, 0, 2228237, 0, 0, 2228238, 0, 0, 2228239, 0, 0, 2228240, 0, 0, 2228241, 0, 0, 2228252, 0, 0, 2228253, 0, 0, 2228254, 0, 0, 2228255, 0, 0, 2228256, 0, 0, 2228257, 0, 0, 2228258, 0, 0, 2228259, 0, 0, 2228260, 0, 0, 2228261, 0, 0, 2228262, 0, 0, 2228263, 0, 0, 2228264, 0, 0, 2228265, 0, 0, 2228266, 0, 0, 2228267, 0, 0, 2228268, 0, 0, 2228269, 0, 0, 2228270, 0, 0, 2228271, 0, 0, 2228272, 0, 0, 2228273, 0, 0, 2228274, 0, 0, 2228275, 0, 0, 2228276, 0, 0, 2228277, 0, 0, 2228278, 0, 0, 2228279, 0, 0, 2228280, 0, 0, 2228281, 0, 0, 2228282, 0, 0, 2228283, 0, 0, 2228284, 0, 0, 2228285, 0, 0, 2228286, 0, 0, 2228287, 0, 0, 2228288, 0, 0, 2228289, 0, 0, 2228290, 0, 0, 2228291, 0, 0, 2228292, 0, 0, 2228293, 0, 0, 2228294, 0, 0, 2228295, 0, 0, 2228296, 0, 0, 2228297, 0, 0, 2228298, 0, 0, 2228299, 0, 0, 2228300, 0, 0, 2228301, 0, 0, 2228302, 0, 0, 2228303, 0, 0, 2228304, 0, 0, 2228305, 0, 0, 2228306, 0, 0, 2228307, 0, 0, 2228308, 0, 0, 2228309, 0, 0, 2228310, 0, 0, 2228311, 0, 0, 2228312, 0, 0, 2228313, 0, 0, 2228314, 0, 0, 2228315, 0, 0, 2228316, 0, 0, 2228317, 0, 0, 2228318, 0, 0, 2228319, 0, 0, 2228320, 0, 0, 2228321, 0, 0, 2228322, 0, 0, 2228323, 0, 0, 2228324, 0, 0, 2293788, 1, 0, 2293789, 1, 0, 2293790, 1, 0, 2293791, 1, 0, 2293792, 1, 0, 2293793, 1, 0, 2293794, 1, 0, 2293795, 1, 0, 2293796, 1, 0, 2293797, 1, 0, 2293798, 1, 0, 2293799, 1, 0, 2293800, 1, 0, 2293801, 1, 0, 2293802, 1, 0, 2293803, 1, 0, 2293804, 1, 0, 2293805, 1, 0, 2293806, 1, 0, 2293807, 1, 0, 2293808, 1, 0, 2293809, 1, 0, 2293810, 1, 0, 2293811, 1, 0, 2293812, 1, 0, 2293813, 1, 0, 2293814, 1, 0, 2293815, 1, 0, 2293816, 1, 0, 2293817, 1, 0, 2293818, 1, 0, 2293819, 1, 0, 2293820, 1, 0, 2293821, 1, 0, 2293822, 1, 0, 2293823, 1, 0, 2293824, 1, 0, 2293825, 1, 0, 2293826, 1, 0, 2293827, 1, 0, 2293828, 1, 0, 2293829, 1, 0, 2293830, 1, 0, 2293831, 1, 0, 2293832, 1, 0, 2293833, 1, 0, 2293834, 1, 0, 2293835, 1, 0, 2293836, 1, 0, 2293837, 1, 0, 2293838, 1, 0, 2293839, 1, 0, 2293840, 1, 0, 2293841, 1, 0, 2293842, 1, 0, 2293843, 1, 0, 2293844, 1, 0, 2293845, 1, 0, 2293846, 1, 0, 2293847, 1, 0, 2293848, 1, 0, 2293849, 1, 0, 2293850, 1, 0, 2293851, 1, 0, 2293852, 1, 0, 2293853, 1, 0, 2293854, 1, 0, 2293855, 1, 0, 2293856, 1, 0, 2293857, 1, 0, 2293858, 1, 0, 2293859, 1, 0, 2293860, 1, 0 )

[node name="JumpingEnemy2" parent="." instance=ExtResource( 4 )]
position = Vector2( 3001.3, 1043.11 )

[node name="JumpingEnemy" parent="." instance=ExtResource( 4 )]
position = Vector2( 2045.5, 1042.6 )
